…
#Import summary statistics
summary_stats = import_eQTLCatalogue(platelet_df$ftp_path, region, selected_gene_id = "ENSG00000163947", column_names)
```

```
## [1] "ftp://ftp.ebi.ac.uk/pub/databases/spot/eQTL/csv/CEDAR/microarray/CEDAR_microarray_platelet.all.tsv.gz"
```

```r
summary_stats
```

```
## # A tibble: 1,561 x 20
##    molecular_trait… chromosome position ref   alt   variant ma_samples
##    <chr>                 <int>    <int> <chr> <chr> <chr>        <int>
##  1 ILMN_1781010              3 56615731 T     C     chr3_5…         33
##  2 ILMN_1781010              3 56616150 A     G     chr3_5…        136
##  3 ILMN_1781010              3 56616554 A     G     chr3_5…         25
##  4 ILMN_1781010              3 56617874 T     C     chr3_5…         37
##  5 ILMN_1781010              3 56618030 C     A     chr3_5…         33
##  6 ILMN_1781010              3 56618451 T     C     chr3_5…         33
##  7 ILMN_1781010              3 56618452 T     A     chr3_5…         33
##  8 ILMN_1781010              3 56618996 TC    T     chr3_5…        118
##  9 ILMN_1781010              3 56619396 A     T     chr3_5…         25
## 10 ILMN_1781010              3 56619399 T     C     chr3_5…         25
## # … with 1,551 more rows, and 13 more variables: maf <dbl>, pvalue <dbl>,
## #   beta <dbl>, se <dbl>, type <chr>, ac <int>, an <int>, r2 <dbl>,
## #   molecular_trait_object_id <chr>, gene_id <chr>, median_tpm <lgl>,
## #   id <chr>, row_count <int>
```
…
#Run coloc
coloc_df_imported = purrr::map_df(result_filtered, ~run_coloc(., gwas_stats_hg38), .id = "qtl_id")
```

Finally, we can merge all of the results together and sort them according to the posterior probabilty of coloclisation. From the table below, we can see that across 110 contexts (cell types/tissues/conditions) we find strong evidence for colocaliation only in platelets.

```r
coloc_df = dplyr::bind_rows(coloc_df_microarray, coloc_df_rnaseq, coloc_df_imported)
dplyr::arrange(coloc_df, -PP.H4.abf)
```

```
## # A tibble: 112 x 7
##    qtl_id           nsnps PP.H0.abf PP.H1.abf PP.H2.abf PP.H3.abf PP.H4.abf
##    <chr>            <dbl>     <dbl>     <dbl>     <dbl>     <dbl>     <dbl>
##  1 CEDAR_platelet    1532         0         0  1.04e-12  1.16e-10     1.00 
##  2 GTEx_V8_Cells_E…  1549         0         0  4.08e- 1  1.06e- 1     0.487
##  3 Alasoo_2018_mac…  1543         0         0  4.88e- 1  2.79e- 1     0.233
##  4 FUSION_adipose_…  1543         0         0  6.07e- 1  1.86e- 1     0.207
##  5 Alasoo_2018_mac…  1543         0         0  6.53e- 1  1.55e- 1     0.192
##  6 Schmiedel_2018_…  1734         0         0  7.37e- 1  1.25e- 1     0.139
##  7 Schmiedel_2018_…  1737         0         0  7.46e- 1  1.30e- 1     0.124
##  8 GTEx_V8_Spleen    1555         0         0  7.53e- 1  1.24e- 1     0.123
##  9 GTEx_V8_Brain_C…  1555         0         0  6.06e- 1  2.74e- 1     0.120
## 10 GTEx_V8_Brain_S…  1553         0         0  7.59e- 1  1.27e- 1     0.113
## # … with 102 more rows
```
…
