tabix_use_case.utf8.md
…
Since this is a known platelet-specific eQTL, lets first fetch this region from the platelet summary statistics of the CEDAR study:

platelet_df = dplyr::filter(tabix_paths, study == "CEDAR", tissue_label == "platelet")

#Extract column names from first file
column_names = colnames(readr::read_tsv(platelet_df$ftp_path, n_max = 1))

summary_stats = import_eQTLCatalogue(platelet_df$ftp_path, region_granges, selected_gene_id = "ENSG00000163947", column_names)

## [1] "ftp://ftp.ebi.ac.uk/pub/databases/spot/eQTL/csv/CEDAR/microarray/CEDAR_platelet.all.tsv.gz"

summary_stats

## # A tibble: 1,561 x 20
##    molecular_trait chromosome position ref   alt   variant ma_samples
##    <chr>                 <dbl>    <dbl> <chr> <chr> <chr>        <dbl>
##  1 ILMN_1781010              3 56615731 T     C     chr3_5         33
##  2 ILMN_1781010              3 56616150 A     G     chr3_5        136
##  3 ILMN_1781010              3 56616554 A     G     chr3_5         25
##  4 ILMN_1781010              3 56617874 T     C     chr3_5         37
##  5 ILMN_1781010              3 56618030 C     A     chr3_5         33
##  6 ILMN_1781010              3 56618451 T     C     chr3_5         33
##  7 ILMN_1781010              3 56618452 T     A     chr3_5         33
##  8 ILMN_1781010              3 56618996 TC    T     chr3_5        118
##  9 ILMN_1781010              3 56619396 A     T     chr3_5         25
## 10 ILMN_1781010              3 56619399 T     C     chr3_5         25
## #  with 1,551 more rows, and 13 more variables: ac <dbl>, an <dbl>,
## #   maf <dbl>, pvalue <dbl>, beta <dbl>, se <dbl>,
## #   molecular_trait_object_id <chr>, gene_id <chr>, median_tpm <lgl>,
## #   r2 <dbl>, type <chr>, id <chr>, row_count <int>
…
#Remove rows that have NAs for standard error
result_filtered = purrr::map(result_list, ~dplyr::filter(., !is.na(se)))

#Run coloc
coloc_df_imported = purrr::map_df(result_filtered, ~run_coloc(., gwas_stats_hg38), .id = "qtl_id")

Finally, we can merge all of the results together and sort them according to the posterior probabilty of coloclisation. From the table below, we can see that across 110 contexts (cell types/tissues/conditions) we find strong evidence for colocaliation only in platelets.

coloc_df = dplyr::bind_rows(coloc_df_microarray, coloc_df_rnaseq, coloc_df_imported)
dplyr::arrange(coloc_df, -PP.H4.abf)

## # A tibble: 110 x 7
##    qtl_id           nsnps PP.H0.abf PP.H1.abf PP.H2.abf PP.H3.abf PP.H4.abf
##    <chr>            <dbl>     <dbl>     <dbl>     <dbl>     <dbl>     <dbl>
##  1 CEDAR_platelet    1532         0         0   0.00149  0.000266    0.998 
##  2 GTEx_V8_Cells_E  1549         0         0   0.408    0.106       0.487 
##  3 GTEx_V8_Spleen    1555         0         0   0.753    0.124       0.123 
##  4 GTEx_V8_Brain_C  1555         0         0   0.606    0.274       0.120 
##  5 GTEx_V8_Brain_S  1553         0         0   0.759    0.127       0.113 
##  6 GTEx_V8_Brain_H  1553         0         0   0.786    0.108       0.106 
##  7 Alasoo_2018_mac  1543         0         0   0.776    0.121       0.103 
##  8 HipSci_iPSC       1568         0         0   0.774    0.127       0.0992
##  9 Schmiedel_2018_  1734         0         0   0.770    0.133       0.0972
## 10 GTEx_V8_Brain_P  1554         0         0   0.531    0.373       0.0962
## #  with 100 more rows
…
